Intermedia course R
…
here("data-raw/dime/cgm/101.csv") %>%
  import_cgm()

# A tibble: 100 × 2
   device_timestamp    historic_glucose_mmol_l
   <dttm>                                <dbl>
 1 2021-03-18 08:15:00                     5.8
 2 2021-03-18 08:30:00                     5.4
 3 2021-03-18 08:45:00                     5.1
 4 2021-03-18 09:01:00                     5.3
 5 2021-03-18 09:16:00                     5.3
 6 2021-03-18 09:31:00                     4.9
 7 2021-03-18 09:46:00                     4.7
 8 2021-03-18 10:01:00                     4.8
 9 2021-03-18 10:16:00                     5.5
10 2021-03-18 10:31:00                     5.7
# ℹ 90 more rows

here("data-raw/dime/cgm/102.csv") %>%
  import_cgm()

# A tibble: 100 × 2
   device_timestamp    historic_glucose_mmol_l
   <dttm>                                <dbl>
 1 2021-03-19 09:02:00                     2.2
 2 2021-03-19 09:17:00                     2.2
 3 2021-03-19 09:32:00                     2.2
 4 2021-03-19 09:46:00                     2.2
 5 2021-03-19 17:29:00                     5.1
 6 2021-03-19 17:44:00                     4.7
 7 2021-03-19 17:59:00                     4.9
 8 2021-03-19 18:14:00                     5.6
 9 2021-03-19 18:29:00                     5.9
10 2021-03-19 18:45:00                     6.2
# ℹ 90 more rows
…
here("data-raw/dime/sleep/101.csv") %>%
  import_sleep()

# A tibble: 100 × 3
   date                sleep_type seconds
   <dttm>              <chr>        <dbl>
 1 2021-05-24 23:03:00 wake           540
 2 2021-05-24 23:12:00 light          180
 3 2021-05-24 23:15:00 deep          1440
 4 2021-05-24 23:39:00 light          240
 5 2021-05-24 23:43:00 wake           300
 6 2021-05-24 23:48:00 light          120
 7 2021-05-24 23:50:00 rem           1350
 8 2021-05-25 00:12:30 wake           870
 9 2021-05-25 00:27:00 rem            360
10 2021-05-25 00:33:00 light          210
# ℹ 90 more rows

here("data-raw/dime/sleep/102.csv") %>%
  import_sleep()

# A tibble: 100 × 3
   date                sleep_type seconds
   <dttm>              <chr>        <dbl>
 1 2021-06-04 00:54:00 light          180
 2 2021-06-04 00:57:00 deep          2340
 3 2021-06-04 01:36:00 light          900
 4 2021-06-04 01:51:00 deep          1470
 5 2021-06-04 02:15:30 light          120
 6 2021-06-04 02:17:30 rem            720
 7 2021-06-04 02:29:30 light         2700
 8 2021-06-04 03:14:30 deep           300
 9 2021-06-04 03:19:30 light         1440
10 2021-06-04 03:43:30 rem           1620
# ℹ 90 more rows

Import DIME data function

here("data-raw/dime/cgm/101.csv") %>%
  import_dime()

# A tibble: 100 × 2
   device_timestamp    historic_glucose_mmol_l
   <dttm>                                <dbl>
 1 2021-03-18 08:15:00                     5.8
 2 2021-03-18 08:30:00                     5.4
 3 2021-03-18 08:45:00                     5.1
 4 2021-03-18 09:01:00                     5.3
 5 2021-03-18 09:16:00                     5.3
 6 2021-03-18 09:31:00                     4.9
 7 2021-03-18 09:46:00                     4.7
 8 2021-03-18 10:01:00                     4.8
 9 2021-03-18 10:16:00                     5.5
10 2021-03-18 10:31:00                     5.7
# ℹ 90 more rows

here("data-raw/dime/sleep/101.csv") %>%
  import_dime()

# A tibble: 100 × 3
   date                sleep_type seconds
   <dttm>              <chr>        <dbl>
 1 2021-05-24 23:03:00 wake           540
 2 2021-05-24 23:12:00 light          180
 3 2021-05-24 23:15:00 deep          1440
 4 2021-05-24 23:39:00 light          240
 5 2021-05-24 23:43:00 wake           300
 6 2021-05-24 23:48:00 light          120
 7 2021-05-24 23:50:00 rem           1350
 8 2021-05-25 00:12:30 wake           870
 9 2021-05-25 00:27:00 rem            360
10 2021-05-25 00:33:00 light          210
# ℹ 90 more rows

Exercise: Convert map to function and use on sleep.

here("data-raw/dime/cgm/") |>
  import_csv_files()

# A tibble: 1,900 × 3
   file_path_id                       device_timestamp    historic_glucose_mmo…¹
   <chr>                              <dttm>                               <dbl>
 1 /Users/au201463/Desktop/LearnR3/d… 2021-03-18 08:15:00                    5.8
 2 /Users/au201463/Desktop/LearnR3/d… 2021-03-18 08:30:00                    5.4
 3 /Users/au201463/Desktop/LearnR3/d… 2021-03-18 08:45:00                    5.1
 4 /Users/au201463/Desktop/LearnR3/d… 2021-03-18 09:01:00                    5.3
 5 /Users/au201463/Desktop/LearnR3/d… 2021-03-18 09:16:00                    5.3
 6 /Users/au201463/Desktop/LearnR3/d… 2021-03-18 09:31:00                    4.9
 7 /Users/au201463/Desktop/LearnR3/d… 2021-03-18 09:46:00                    4.7
 8 /Users/au201463/Desktop/LearnR3/d… 2021-03-18 10:01:00                    4.8
 9 /Users/au201463/Desktop/LearnR3/d… 2021-03-18 10:16:00                    5.5
10 /Users/au201463/Desktop/LearnR3/d… 2021-03-18 10:31:00                    5.7
# ℹ 1,890 more rows
# ℹ abbreviated name: ¹​historic_glucose_mmol_l

here("data-raw/dime/sleep/") |>
  import_csv_files()

# A tibble: 1,800 × 4
   file_path_id                           date                sleep_type seconds
   <chr>                                  <dttm>              <chr>        <dbl>
 1 /Users/au201463/Desktop/LearnR3/data-… 2021-05-24 23:03:00 wake           540
 2 /Users/au201463/Desktop/LearnR3/data-… 2021-05-24 23:12:00 light          180
 3 /Users/au201463/Desktop/LearnR3/data-… 2021-05-24 23:15:00 deep          1440
 4 /Users/au201463/Desktop/LearnR3/data-… 2021-05-24 23:39:00 light          240
 5 /Users/au201463/Desktop/LearnR3/data-… 2021-05-24 23:43:00 wake           300
 6 /Users/au201463/Desktop/LearnR3/data-… 2021-05-24 23:48:00 light          120
 7 /Users/au201463/Desktop/LearnR3/data-… 2021-05-24 23:50:00 rem           1350
 8 /Users/au201463/Desktop/LearnR3/data-… 2021-05-25 00:12:30 wake           870
 9 /Users/au201463/Desktop/LearnR3/data-… 2021-05-25 00:27:00 rem            360
10 /Users/au201463/Desktop/LearnR3/data-… 2021-05-25 00:33:00 light          210
# ℹ 1,790 more rows

Using regex for ID extraction

here("data-raw/dime/cgm/") |>
  import_csv_files() %>%
  get_participant_id()

# A tibble: 1,900 × 3
      id device_timestamp    historic_glucose_mmol_l
   <int> <dttm>                                <dbl>
 1   101 2021-03-18 08:15:00                     5.8
 2   101 2021-03-18 08:30:00                     5.4
 3   101 2021-03-18 08:45:00                     5.1
 4   101 2021-03-18 09:01:00                     5.3
 5   101 2021-03-18 09:16:00                     5.3
 6   101 2021-03-18 09:31:00                     4.9
 7   101 2021-03-18 09:46:00                     4.7
 8   101 2021-03-18 10:01:00                     4.8
 9   101 2021-03-18 10:16:00                     5.5
10   101 2021-03-18 10:31:00                     5.7
# ℹ 1,890 more rows

here("data-raw/dime/sleep/") |>
  import_csv_files() %>%
  get_participant_id()

# A tibble: 1,800 × 4
      id date                sleep_type seconds
   <int> <dttm>              <chr>        <dbl>
 1   101 2021-05-24 23:03:00 wake           540
 2   101 2021-05-24 23:12:00 light          180
 3   101 2021-05-24 23:15:00 deep          1440
 4   101 2021-05-24 23:39:00 light          240
 5   101 2021-05-24 23:43:00 wake           300
 6   101 2021-05-24 23:48:00 light          120
 7   101 2021-05-24 23:50:00 rem           1350
 8   101 2021-05-25 00:12:30 wake           870
 9   101 2021-05-25 00:27:00 rem            360
10   101 2021-05-25 00:33:00 light          210
# ℹ 1,790 more rows
…
Summarize by group

cgm_data %>%
  select(-contains("timestamp"), -contains("datetime")) %>%
  group_by(pick(-glucose)) %>%
  summarise(
    across(glucose, list(
      mean = mean,
      sd = sd
    )),
    .groups = "drop"
  )

# A tibble: 506 × 5
      id date        hour glucose_mean glucose_sd
   <int> <date>     <int>        <dbl>      <dbl>
 1   101 2021-03-18     8         5.43     0.351 
 2   101 2021-03-18     9         5.05     0.300 
 3   101 2021-03-18    10         5.3      0.392 
 4   101 2021-03-18    11         4.03     0.189 
 5   101 2021-03-18    12         4.02     0.0957
 6   101 2021-03-18    13         4.1      0.141 
 7   101 2021-03-18    14         5.62     0.946 
 8   101 2021-03-18    15         7.3      0.141 
 9   101 2021-03-18    16         6.55     0.7   
10   101 2021-03-18    17         4.8      0.356 
# ℹ 496 more rows
